<?xml version="1.0" encoding="UTF-8"?>
<session version="1.0">
<refactoring comment="Delete resource &apos;Emp&apos;" deleteContents="false" description="Delete resource &apos;Emp&apos;" element1="/Emp" flags="7" id="org.eclipse.ltk.core.refactoring.delete.resources" resources="1" stamp="1599015529864"/>
</session>