<?xml version="1.0" encoding="UTF-8"?>
<session version="1.0">
<refactoring comment="Rename Java project &apos;MyProg1&apos; to &apos;Array1-D&apos;&#x0A;- Original element: &apos;MyProg1&apos;&#x0A;- Renamed element: &apos;MyProg1&apos;&#x0A;- Update references to refactored element" description="Rename Java project &apos;MyProg1&apos;" flags="7" id="org.eclipse.jdt.ui.rename.java.project" input="=MyProg1" name="Array1-D" references="true" stamp="1599074307946" version="1.0"/>
</session>